{
   "schema": {
      "type": "object",
      "title": "{{{pageOwnerData}}}",
      "required": ["owner", "email"],
      "properties": {
        "owner": {
           "type": "string",
           "title": "{{{pageOwner}}}"
        },
        "email": {
          "type": "string",
          "format": "email",
          "title": "{{{email}}}"
        },
        "address": {
          "type":  "object",
          "title": "{{{address}}}",
          "properties": {
            "street": {
              "type": "string",
              "title": "{{{street}}}"
            },
            "zipTown": {
              "type": "string",
              "title": "{{{zipTown}}}"
            }
          }
        }
      }
   },
   "subsections": true
}
