[
	{
		"name": "emptyPage",
		"subsections": true,
		"content": true,
		"files": {
            "files": {
                "occurrence": "multiple"
            }
        },
        "forms": true
	},
	{
		"name": "singlePicMainPage",
		"subsections": true,
		"content": {
			"predefined": {
				"heading": {
					"type": "inlineText"
				},
				"headingText": {
					"type": "multilineText"
				},
				"texts": {
					"type": "titleTexts"
				}
			}
		},
		"files": {
            "illustration": {
                "occurrence": "single",
                "mimeTypes": [
                    "image"
                ]
            },
            "gallery": {
                "occurrence": "multiple",
                "mimeTypes": [
                    "image"
                ]
            }
        },
        "forms": true
	},
	{
		"name": "blog",
		"subsections": {
			"predefined": ["blogPost"]
		},
		"content": false,
        "forms": false
	},
	{
		"name": "blogPost",
		"subsections":false,
		"content": {
			"predefined": {
				"headingText": {
					"type": "multilineText"
				},
				"text": {
					"type": "multilineText"
				}
			}
		},
		"files": {
            "illustration": {
                "occurrence": "single",
                "mimeTypes": [
                    "image"
                ]
            },
            "gallery": {
                "occurrence": "multiple",
                "mimeTypes": [
                    "image"
                ]
            }
        },
        "forms": false
	}
]
