{
    "Status": {
        "schema": {
            "type": "object",
            "properties": {
                "status": {
                    "enum": [
                        "completed",
                        "paused",
                        "ongoing",
                        "planned"
                    ],
                    "title": "status"
                }
            },
            "title": "Status",
            "$defs": {}
        }
    },
    "Social media": {
        "schema": {
            "type": "object",
            "properties": {
                "Platforms": {
                    "type": "array",
                    "items": {
                        "type": "object",
                        "properties": {
                            "Name": {
                                "$ref": "#\/$defs\/langInput",
                                "title": "Name"
                            },
                            "Link": {
                                "$ref": "#\/$defs\/langInput",
                                "title": "Link"
                            }
                        },
                        "title": "Name and Link"
                    },
                    "title": "Platforms"
                }
            },
            "title": "Social media",
            "$defs": {}
        }
    },
    "Links": {
        "schema": {
            "type": "object",
            "properties": {
                "Link list": {
                    "type": "array",
                    "items": {
                        "type": "object",
                        "properties": {
                            "Link": {
                                "type": "string",
                                "format": "uri",
                                "title": "Link"
                            },
                            "Description": {
                                "$ref": "#\/$defs\/langInput",
                                "title": "Description"
                            }
                        },
                        "title": "Link and description"
                    },
                    "title": "Link list"
                }
            },
            "title": "Links",
            "$defs": {}
        }
    }
}